{
	  "domainStrategy": "IPOnDemand",
    "rules": [
      {
        "type": "field",
        "inboundTag": [
          "api"
        ],
        "outboundTag": "api"
      },
      {
        "type": "field",
        "ip": [
          "geoip:cn",
          "geoip:private"
        ],
        "outboundTag": "blocked"
      },
      {
        "type": "field",
        "protocol": [
          "bittorrent"
        ],
        "outboundTag": "blocked"
      }
    ]
}
